cnt6_show1/simulation/qsim/cnt6.msim.vcd
$comment
	File created using the following command:
		vcd file cnt6.msim.vcd -direction
$end
$date
	Wed May 19 09:51:06 2021
$end
$version
	ModelSim Version 10.1d
$end
$timescale
	1ps
$end
$scope module cnt6_vlg_vec_tst $end
$var reg 1 ! p_59 $end
$var wire 1 " Q $end
$var wire 1 # q_59 [3] $end
$var wire 1 $ q_59 [2] $end
$var wire 1 % q_59 [1] $end
$var wire 1 & q_59 [0] $end
$var wire 1 ' sampler $end
$scope module i1 $end
$var wire 1 ( gnd $end
$var wire 1 ) vcc $end
$var wire 1 * unknown $end
$var tri1 1 + devclrn $end
$var tri1 1 , devpor $end
$var tri1 1 - devoe $end
$var wire 1 . Q~output_o $end
$var wire 1 / q_59[3]~output_o $end
$var wire 1 0 q_59[2]~output_o $end
$var wire 1 1 q_59[1]~output_o $end
$var wire 1 2 q_59[0]~output_o $end
$var wire 1 3 p_59~input_o $end
$var wire 1 4 p_59~inputclkctrl_outclk $end
$var wire 1 5 inst1|7~0_combout $end
$var wire 1 6 inst1|7~feeder_combout $end
$var wire 1 7 inst1|7~q $end
$var wire 1 8 inst1|3~0_combout $end
$var wire 1 9 inst1|3~feeder_combout $end
$var wire 1 : inst1|3~q $end
$var wire 1 ; inst1|20~combout $end
$var wire 1 < inst1|6~0_combout $end
$var wire 1 = inst1|6~q $end
$var wire 1 > inst1|5~0_combout $end
$var wire 1 ? inst1|5~q $end
$var wire 1 @ inst~combout $end
$var wire 1 A inst3~q $end
$upscope $end
$upscope $end
$enddefinitions $end
#0
$dumpvars
0!
0"
0&
0%
0$
0#
x'
0(
1)
x*
1+
1,
1-
0.
0/
00
01
02
03
04
15
16
07
08
09
0:
1;
1<
0=
1>
0?
0@
0A
$end
#5000
1!
13
14
0'
#10000
0!
03
04
1'
17
0;
05
12
1&
06
#15000
1!
13
14
0'
#20000
0!
03
04
1'
07
1;
15
02
0&
16
1=
0<
11
1%
#25000
1!
13
14
0'
#30000
0!
03
04
1'
17
0;
05
12
1&
06
#35000
1!
13
14
0'
#40000
0!
03
04
1'
07
1;
15
02
0&
16
0=
1<
01
0%
1?
0>
10
1$
#45000
1!
13
14
0'
#50000
0!
03
04
1'
17
1@
0;
05
12
1&
06
#55000
1!
13
14
0'
#60000
0!
03
04
1'
07
1A
0@
1;
15
02
1.
0&
1"
16
0?
1>
00
0$
#65000
1!
13
14
0'
#70000
0!
03
04
1'
0A
0.
0"
#75000
1!
13
14
0'
#80000
0!
03
04
1'
17
0;
05
12
1&
06
#85000
1!
13
14
0'
#90000
0!
03
04
1'
07
1;
15
02
0&
16
1=
0<
11
1%
#95000
1!
13
14
0'
#100000
0!
03
04
1'
17
0;
05
12
1&
06
#105000
1!
13
14
0'
#110000
0!
03
04
1'
07
1;
15
02
0&
16
0=
1<
01
0%
1?
0>
10
1$
#115000
1!
13
14
0'
#120000
0!
03
04
1'
17
1@
0;
05
12
1&
06
#125000
1!
13
14
0'
#130000
0!
03
04
1'
07
1A
0@
1;
15
02
1.
0&
1"
16
0?
1>
00
0$
#135000
1!
13
14
0'
#140000
0!
03
04
1'
0A
0.
0"
#145000
1!
13
14
0'
#150000
0!
03
04
1'
17
0;
05
12
1&
06
#155000
1!
13
14
0'
#160000
0!
03
04
1'
07
1;
15
02
0&
16
1=
0<
11
1%
#165000
1!
13
14
0'
#170000
0!
03
04
1'
17
0;
05
12
1&
06
#175000
1!
13
14
0'
#180000
0!
03
04
1'
07
1;
15
02
0&
16
0=
1<
01
0%
1?
0>
10
1$
#185000
1!
13
14
0'
#190000
0!
03
04
1'
17
1@
0;
05
12
1&
06
#195000
1!
13
14
0'
#200000
0!
03
04
1'
07
1A
0@
1;
15
02
1.
0&
1"
16
0?
1>
00
0$
#205000
1!
13
14
0'
#210000
0!
03
04
1'
0A
0.
0"
#215000
1!
13
14
0'
#220000
0!
03
04
1'
17
0;
05
12
1&
06
#225000
1!
13
14
0'
#230000
0!
03
04
1'
07
1;
15
02
0&
16
1=
0<
11
1%
#235000
1!
13
14
0'
#240000
0!
03
04
1'
17
0;
05
12
1&
06
#245000
1!
13
14
0'
#250000
0!
03
04
1'
07
1;
15
02
0&
16
0=
1<
01
0%
1?
0>
10
1$
#255000
1!
13
14
0'
#260000
0!
03
04
1'
17
1@
0;
05
12
1&
06
#265000
1!
13
14
0'
#270000
0!
03
04
1'
07
1A
0@
1;
15
02
1.
0&
1"
16
0?
1>
00
0$
#275000
1!
13
14
0'
#280000
0!
03
04
1'
0A
0.
0"
#285000
1!
13
14
0'
#290000
0!
03
04
1'
17
0;
05
12
1&
06
#295000
1!
13
14
0'
#300000
0!
03
04
1'
07
1;
15
02
0&
16
1=
0<
11
1%
#305000
1!
13
14
0'
#310000
0!
03
04
1'
17
0;
05
12
1&
06
#315000
1!
13
14
0'
#320000
0!
03
04
1'
07
1;
15
02
0&
16
0=
1<
01
0%
1?
0>
10
1$
#325000
1!
13
14
0'
#330000
0!
03
04
1'
17
1@
0;
05
12
1&
06
#335000
1!
13
14
0'
#340000
0!
03
04
1'
07
1A
0@
1;
15
02
1.
0&
1"
16
0?
1>
00
0$
#345000
1!
13
14
0'
#350000
0!
03
04
1'
0A
0.
0"
#355000
1!
13
14
0'
#360000
0!
03
04
1'
17
0;
05
12
1&
06
#365000
1!
13
14
0'
#370000
0!
03
04
1'
07
1;
15
02
0&
16
1=
0<
11
1%
#375000
1!
13
14
0'
#380000
0!
03
04
1'
17
0;
05
12
1&
06
#385000
1!
13
14
0'
#390000
0!
03
04
1'
07
1;
15
02
0&
16
0=
1<
01
0%
1?
0>
10
1$
#395000
1!
13
14
0'
#400000
0!
03
04
1'
17
1@
0;
05
12
1&
06
#405000
1!
13
14
0'
#410000
0!
03
04
1'
07
1A
0@
1;
15
02
1.
0&
1"
16
0?
1>
00
0$
#415000
1!
13
14
0'
#420000
0!
03
04
1'
0A
0.
0"
#425000
1!
13
14
0'
#430000
0!
03
04
1'
17
0;
05
12
1&
06
#435000
1!
13
14
0'
#440000
0!
03
04
1'
07
1;
15
02
0&
16
1=
0<
11
1%
#445000
1!
13
14
0'
#450000
0!
03
04
1'
17
0;
05
12
1&
06
#455000
1!
13
14
0'
#460000
0!
03
04
1'
07
1;
15
02
0&
16
0=
1<
01
0%
1?
0>
10
1$
#465000
1!
13
14
0'
#470000
0!
03
04
1'
17
1@
0;
05
12
1&
06
#475000
1!
13
14
0'
#480000
0!
03
04
1'
07
1A
0@
1;
15
02
1.
0&
1"
16
0?
1>
00
0$
#485000
1!
13
14
0'
#490000
0!
03
04
1'
0A
0.
0"
#495000
1!
13
14
0'
#500000
0!
03
04
1'
17
0;
05
12
1&
06
#505000
1!
13
14
0'
#510000
0!
03
04
1'
07
1;
15
02
0&
16
1=
0<
11
1%
#515000
1!
13
14
0'
#520000
0!
03
04
1'
17
0;
05
12
1&
06
#525000
1!
13
14
0'
#530000
0!
03
04
1'
07
1;
15
02
0&
16
0=
1<
01
0%
1?
0>
10
1$
#535000
1!
13
14
0'
#540000
0!
03
04
1'
17
1@
0;
05
12
1&
06
#545000
1!
13
14
0'
#550000
0!
03
04
1'
07
1A
0@
1;
15
02
1.
0&
1"
16
0?
1>
00
0$
#555000
1!
13
14
0'
#560000
0!
03
04
1'
0A
0.
0"
#565000
1!
13
14
0'
#570000
0!
03
04
1'
17
0;
05
12
1&
06
#575000
1!
13
14
0'
#580000
0!
03
04
1'
07
1;
15
02
0&
16
1=
0<
11
1%
#585000
1!
13
14
0'
#590000
0!
03
04
1'
17
0;
05
12
1&
06
#595000
1!
13
14
0'
#600000
0!
03
04
1'
07
1;
15
02
0&
16
0=
1<
01
0%
1?
0>
10
1$
#605000
1!
13
14
0'
#610000
0!
03
04
1'
17
1@
0;
05
12
1&
06
#615000
1!
13
14
0'
#620000
0!
03
04
1'
07
1A
0@
1;
15
02
1.
0&
1"
16
0?
1>
00
0$
#625000
1!
13
14
0'
#630000
0!
03
04
1'
0A
0.
0"
#635000
1!
13
14
0'
#640000
0!
03
04
1'
17
0;
05
12
1&
06
#645000
1!
13
14
0'
#650000
0!
03
04
1'
07
1;
15
02
0&
16
1=
0<
11
1%
#655000
1!
13
14
0'
#660000
0!
03
04
1'
17
0;
05
12
1&
06
#665000
1!
13
14
0'
#670000
0!
03
04
1'
07
1;
15
02
0&
16
0=
1<
01
0%
1?
0>
10
1$
#675000
1!
13
14
0'
#680000
0!
03
04
1'
17
1@
0;
05
12
1&
06
#685000
1!
13
14
0'
#690000
0!
03
04
1'
07
1A
0@
1;
15
02
1.
0&
1"
16
0?
1>
00
0$
#695000
1!
13
14
0'
#700000
0!
03
04
1'
0A
0.
0"
#705000
1!
13
14
0'
#710000
0!
03
04
1'
17
0;
05
12
1&
06
#715000
1!
13
14
0'
#720000
0!
03
04
1'
07
1;
15
02
0&
16
1=
0<
11
1%
#725000
1!
13
14
0'
#730000
0!
03
04
1'
17
0;
05
12
1&
06
#735000
1!
13
14
0'
#740000
0!
03
04
1'
07
1;
15
02
0&
16
0=
1<
01
0%
1?
0>
10
1$
#745000
1!
13
14
0'
#750000
0!
03
04
1'
17
1@
0;
05
12
1&
06
#755000
1!
13
14
0'
#760000
0!
03
04
1'
07
1A
0@
1;
15
02
1.
0&
1"
16
0?
1>
00
0$
#765000
1!
13
14
0'
#770000
0!
03
04
1'
0A
0.
0"
#775000
1!
13
14
0'
#780000
0!
03
04
1'
17
0;
05
12
1&
06
#785000
1!
13
14
0'
#790000
0!
03
04
1'
07
1;
15
02
0&
16
1=
0<
11
1%
#795000
1!
13
14
0'
#800000
0!
03
04
1'
17
0;
05
12
1&
06
#805000
1!
13
14
0'
#810000
0!
03
04
1'
07
1;
15
02
0&
16
0=
1<
01
0%
1?
0>
10
1$
#815000
1!
13
14
0'
#820000
0!
03
04
1'
17
1@
0;
05
12
1&
06
#825000
1!
13
14
0'
#830000
0!
03
04
1'
07
1A
0@
1;
15
02
1.
0&
1"
16
0?
1>
00
0$
#835000
1!
13
14
0'
#840000
0!
03
04
1'
0A
0.
0"
#845000
1!
13
14
0'
#850000
0!
03
04
1'
17
0;
05
12
1&
06
#855000
1!
13
14
0'
#860000
0!
03
04
1'
07
1;
15
02
0&
16
1=
0<
11
1%
#865000
1!
13
14
0'
#870000
0!
03
04
1'
17
0;
05
12
1&
06
#875000
1!
13
14
0'
#880000
0!
03
04
1'
07
1;
15
02
0&
16
0=
1<
01
0%
1?
0>
10
1$
#885000
1!
13
14
0'
#890000
0!
03
04
1'
17
1@
0;
05
12
1&
06
#895000
1!
13
14
0'
#900000
0!
03
04
1'
07
1A
0@
1;
15
02
1.
0&
1"
16
0?
1>
00
0$
#905000
1!
13
14
0'
#910000
0!
03
04
1'
0A
0.
0"
#915000
1!
13
14
0'
#920000
0!
03
04
1'
17
0;
05
12
1&
06
#925000
1!
13
14
0'
#930000
0!
03
04
1'
07
1;
15
02
0&
16
1=
0<
11
1%
#935000
1!
13
14
0'
#940000
0!
03
04
1'
17
0;
05
12
1&
06
#945000
1!
13
14
0'
#950000
0!
03
04
1'
07
1;
15
02
0&
16
0=
1<
01
0%
1?
0>
10
1$
#955000
1!
13
14
0'
#960000
0!
03
04
1'
17
1@
0;
05
12
1&
06
#965000
1!
13
14
0'
#970000
0!
03
04
1'
07
1A
0@
1;
15
02
1.
0&
1"
16
0?
1>
00
0$
#975000
1!
13
14
0'
#980000
0!
03
04
1'
0A
0.
0"
#985000
1!
13
14
0'
#990000
0!
03
04
1'
17
0;
05
12
1&
06
#995000
1!
13
14
0'
