cnt6_show3/simulation/qsim/cnt6.msim.vcd
$comment
	File created using the following command:
		vcd file cnt6.msim.vcd -direction
$end
$date
	Wed May 19 09:53:37 2021
$end
$version
	ModelSim Version 10.1d
$end
$timescale
	1ps
$end
$scope module cnt6_vlg_vec_tst $end
$var reg 1 ! p_59 $end
$var wire 1 " Q $end
$var wire 1 # q_59 [3] $end
$var wire 1 $ q_59 [2] $end
$var wire 1 % q_59 [1] $end
$var wire 1 & q_59 [0] $end
$var wire 1 ' sampler $end
$scope module i1 $end
$var wire 1 ( gnd $end
$var wire 1 ) vcc $end
$var wire 1 * unknown $end
$var tri1 1 + devclrn $end
$var tri1 1 , devpor $end
$var tri1 1 - devoe $end
$var wire 1 . Q~output_o $end
$var wire 1 / q_59[3]~output_o $end
$var wire 1 0 q_59[2]~output_o $end
$var wire 1 1 q_59[1]~output_o $end
$var wire 1 2 q_59[0]~output_o $end
$var wire 1 3 p_59~input_o $end
$var wire 1 4 p_59~inputclkctrl_outclk $end
$var wire 1 5 inst3~feeder_combout $end
$var wire 1 6 inst1|7~0_combout $end
$var wire 1 7 inst1|7~feeder_combout $end
$var wire 1 8 inst1|7~q $end
$var wire 1 9 inst1|5~0_combout $end
$var wire 1 : inst1|5~q $end
$var wire 1 ; inst1|3~0_combout $end
$var wire 1 < inst1|3~feeder_combout $end
$var wire 1 = inst1|3~q $end
$var wire 1 > inst1|20~combout $end
$var wire 1 ? inst1|6~0_combout $end
$var wire 1 @ inst1|6~feeder_combout $end
$var wire 1 A inst1|6~q $end
$var wire 1 B inst2~combout $end
$var wire 1 C inst3~q $end
$upscope $end
$upscope $end
$enddefinitions $end
#0
$dumpvars
0!
1"
0&
0%
0$
0#
x'
0(
1)
x*
1+
1,
1-
1.
0/
00
01
02
03
04
15
16
17
08
19
0:
0;
0<
0=
1>
1?
1@
0A
0B
0C
$end
#5000
1!
13
14
0'
1C
0.
0"
#10000
0!
03
04
1'
18
0>
06
12
1&
07
#15000
1!
13
14
0'
#20000
0!
03
04
1'
08
1>
16
02
0&
17
1A
0?
11
1%
0@
#25000
1!
13
14
0'
#30000
0!
03
04
1'
18
0>
06
12
1&
07
#35000
1!
13
14
0'
#40000
0!
03
04
1'
08
1>
16
02
0&
17
0A
1?
01
0%
1@
1:
09
10
1$
#45000
1!
13
14
0'
#50000
0!
03
04
1'
18
0>
06
12
1&
07
#55000
1!
13
14
0'
#60000
0!
03
04
1'
08
1>
16
02
0&
17
1A
1B
0?
1;
11
1%
0@
1<
0C
1.
1"
0A
0:
0B
1?
0;
19
01
00
0%
0$
1@
0<
#65000
1!
13
14
0'
1C
0.
0"
#70000
0!
03
04
1'
18
0>
06
12
1&
07
#75000
1!
13
14
0'
#80000
0!
03
04
1'
08
1>
16
02
0&
17
1A
0?
11
1%
0@
#85000
1!
13
14
0'
#90000
0!
03
04
1'
18
0>
06
12
1&
07
#95000
1!
13
14
0'
#100000
0!
03
04
1'
08
1>
16
02
0&
17
0A
1?
01
0%
1@
1:
09
10
1$
#105000
1!
13
14
0'
#110000
0!
03
04
1'
18
0>
06
12
1&
07
#115000
1!
13
14
0'
#120000
0!
03
04
1'
08
1>
16
02
0&
17
1A
1B
0?
1;
11
1%
0@
1<
0C
1.
1"
0A
0:
0B
1?
0;
19
01
00
0%
0$
1@
0<
#125000
1!
13
14
0'
1C
0.
0"
#130000
0!
03
04
1'
18
0>
06
12
1&
07
#135000
1!
13
14
0'
#140000
0!
03
04
1'
08
1>
16
02
0&
17
1A
0?
11
1%
0@
#145000
1!
13
14
0'
#150000
0!
03
04
1'
18
0>
06
12
1&
07
#155000
1!
13
14
0'
#160000
0!
03
04
1'
08
1>
16
02
0&
17
0A
1?
01
0%
1@
1:
09
10
1$
#165000
1!
13
14
0'
#170000
0!
03
04
1'
18
0>
06
12
1&
07
#175000
1!
13
14
0'
#180000
0!
03
04
1'
08
1>
16
02
0&
17
1A
1B
0?
1;
11
1%
0@
1<
0C
1.
1"
0A
0:
0B
1?
0;
19
01
00
0%
0$
1@
0<
#185000
1!
13
14
0'
1C
0.
0"
#190000
0!
03
04
1'
18
0>
06
12
1&
07
#195000
1!
13
14
0'
#200000
0!
03
04
1'
08
1>
16
02
0&
17
1A
0?
11
1%
0@
#205000
1!
13
14
0'
#210000
0!
03
04
1'
18
0>
06
12
1&
07
#215000
1!
13
14
0'
#220000
0!
03
04
1'
08
1>
16
02
0&
17
0A
1?
01
0%
1@
1:
09
10
1$
#225000
1!
13
14
0'
#230000
0!
03
04
1'
18
0>
06
12
1&
07
#235000
1!
13
14
0'
#240000
0!
03
04
1'
08
1>
16
02
0&
17
1A
1B
0?
1;
11
1%
0@
1<
0C
1.
1"
0A
0:
0B
1?
0;
19
01
00
0%
0$
1@
0<
#245000
1!
13
14
0'
1C
0.
0"
#250000
0!
03
04
1'
18
0>
06
12
1&
07
#255000
1!
13
14
0'
#260000
0!
03
04
1'
08
1>
16
02
0&
17
1A
0?
11
1%
0@
#265000
1!
13
14
0'
#270000
0!
03
04
1'
18
0>
06
12
1&
07
#275000
1!
13
14
0'
#280000
0!
03
04
1'
08
1>
16
02
0&
17
0A
1?
01
0%
1@
1:
09
10
1$
#285000
1!
13
14
0'
#290000
0!
03
04
1'
18
0>
06
12
1&
07
#295000
1!
13
14
0'
#300000
0!
03
04
1'
08
1>
16
02
0&
17
1A
1B
0?
1;
11
1%
0@
1<
0C
1.
1"
0A
0:
0B
1?
0;
19
01
00
0%
0$
1@
0<
#305000
1!
13
14
0'
1C
0.
0"
#310000
0!
03
04
1'
18
0>
06
12
1&
07
#315000
1!
13
14
0'
#320000
0!
03
04
1'
08
1>
16
02
0&
17
1A
0?
11
1%
0@
#325000
1!
13
14
0'
#330000
0!
03
04
1'
18
0>
06
12
1&
07
#335000
1!
13
14
0'
#340000
0!
03
04
1'
08
1>
16
02
0&
17
0A
1?
01
0%
1@
1:
09
10
1$
#345000
1!
13
14
0'
#350000
0!
03
04
1'
18
0>
06
12
1&
07
#355000
1!
13
14
0'
#360000
0!
03
04
1'
08
1>
16
02
0&
17
1A
1B
0?
1;
11
1%
0@
1<
0C
1.
1"
0A
0:
0B
1?
0;
19
01
00
0%
0$
1@
0<
#365000
1!
13
14
0'
1C
0.
0"
#370000
0!
03
04
1'
18
0>
06
12
1&
07
#375000
1!
13
14
0'
#380000
0!
03
04
1'
08
1>
16
02
0&
17
1A
0?
11
1%
0@
#385000
1!
13
14
0'
#390000
0!
03
04
1'
18
0>
06
12
1&
07
#395000
1!
13
14
0'
#400000
0!
03
04
1'
08
1>
16
02
0&
17
0A
1?
01
0%
1@
1:
09
10
1$
#405000
1!
13
14
0'
#410000
0!
03
04
1'
18
0>
06
12
1&
07
#415000
1!
13
14
0'
#420000
0!
03
04
1'
08
1>
16
02
0&
17
1A
1B
0?
1;
11
1%
0@
1<
0C
1.
1"
0A
0:
0B
1?
0;
19
01
00
0%
0$
1@
0<
#425000
1!
13
14
0'
1C
0.
0"
#430000
0!
03
04
1'
18
0>
06
12
1&
07
#435000
1!
13
14
0'
#440000
0!
03
04
1'
08
1>
16
02
0&
17
1A
0?
11
1%
0@
#445000
1!
13
14
0'
#450000
0!
03
04
1'
18
0>
06
12
1&
07
#455000
1!
13
14
0'
#460000
0!
03
04
1'
08
1>
16
02
0&
17
0A
1?
01
0%
1@
1:
09
10
1$
#465000
1!
13
14
0'
#470000
0!
03
04
1'
18
0>
06
12
1&
07
#475000
1!
13
14
0'
#480000
0!
03
04
1'
08
1>
16
02
0&
17
1A
1B
0?
1;
11
1%
0@
1<
0C
1.
1"
0A
0:
0B
1?
0;
19
01
00
0%
0$
1@
0<
#485000
1!
13
14
0'
1C
0.
0"
#490000
0!
03
04
1'
18
0>
06
12
1&
07
#495000
1!
13
14
0'
#500000
0!
03
04
1'
08
1>
16
02
0&
17
1A
0?
11
1%
0@
#505000
1!
13
14
0'
#510000
0!
03
04
1'
18
0>
06
12
1&
07
#515000
1!
13
14
0'
#520000
0!
03
04
1'
08
1>
16
02
0&
17
0A
1?
01
0%
1@
1:
09
10
1$
#525000
1!
13
14
0'
#530000
0!
03
04
1'
18
0>
06
12
1&
07
#535000
1!
13
14
0'
#540000
0!
03
04
1'
08
1>
16
02
0&
17
1A
1B
0?
1;
11
1%
0@
1<
0C
1.
1"
0A
0:
0B
1?
0;
19
01
00
0%
0$
1@
0<
#545000
1!
13
14
0'
1C
0.
0"
#550000
0!
03
04
1'
18
0>
06
12
1&
07
#555000
1!
13
14
0'
#560000
0!
03
04
1'
08
1>
16
02
0&
17
1A
0?
11
1%
0@
#565000
1!
13
14
0'
#570000
0!
03
04
1'
18
0>
06
12
1&
07
#575000
1!
13
14
0'
#580000
0!
03
04
1'
08
1>
16
02
0&
17
0A
1?
01
0%
1@
1:
09
10
1$
#585000
1!
13
14
0'
#590000
0!
03
04
1'
18
0>
06
12
1&
07
#595000
1!
13
14
0'
#600000
0!
03
04
1'
08
1>
16
02
0&
17
1A
1B
0?
1;
11
1%
0@
1<
0C
1.
1"
0A
0:
0B
1?
0;
19
01
00
0%
0$
1@
0<
#605000
1!
13
14
0'
1C
0.
0"
#610000
0!
03
04
1'
18
0>
06
12
1&
07
#615000
1!
13
14
0'
#620000
0!
03
04
1'
08
1>
16
02
0&
17
1A
0?
11
1%
0@
#625000
1!
13
14
0'
#630000
0!
03
04
1'
18
0>
06
12
1&
07
#635000
1!
13
14
0'
#640000
0!
03
04
1'
08
1>
16
02
0&
17
0A
1?
01
0%
1@
1:
09
10
1$
#645000
1!
13
14
0'
#650000
0!
03
04
1'
18
0>
06
12
1&
07
#655000
1!
13
14
0'
#660000
0!
03
04
1'
08
1>
16
02
0&
17
1A
1B
0?
1;
11
1%
0@
1<
0C
1.
1"
0A
0:
0B
1?
0;
19
01
00
0%
0$
1@
0<
#665000
1!
13
14
0'
1C
0.
0"
#670000
0!
03
04
1'
18
0>
06
12
1&
07
#675000
1!
13
14
0'
#680000
0!
03
04
1'
08
1>
16
02
0&
17
1A
0?
11
1%
0@
#685000
1!
13
14
0'
#690000
0!
03
04
1'
18
0>
06
12
1&
07
#695000
1!
13
14
0'
#700000
0!
03
04
1'
08
1>
16
02
0&
17
0A
1?
01
0%
1@
1:
09
10
1$
#705000
1!
13
14
0'
#710000
0!
03
04
1'
18
0>
06
12
1&
07
#715000
1!
13
14
0'
#720000
0!
03
04
1'
08
1>
16
02
0&
17
1A
1B
0?
1;
11
1%
0@
1<
0C
1.
1"
0A
0:
0B
1?
0;
19
01
00
0%
0$
1@
0<
#725000
1!
13
14
0'
1C
0.
0"
#730000
0!
03
04
1'
18
0>
06
12
1&
07
#735000
1!
13
14
0'
#740000
0!
03
04
1'
08
1>
16
02
0&
17
1A
0?
11
1%
0@
#745000
1!
13
14
0'
#750000
0!
03
04
1'
18
0>
06
12
1&
07
#755000
1!
13
14
0'
#760000
0!
03
04
1'
08
1>
16
02
0&
17
0A
1?
01
0%
1@
1:
09
10
1$
#765000
1!
13
14
0'
#770000
0!
03
04
1'
18
0>
06
12
1&
07
#775000
1!
13
14
0'
#780000
0!
03
04
1'
08
1>
16
02
0&
17
1A
1B
0?
1;
11
1%
0@
1<
0C
1.
1"
0A
0:
0B
1?
0;
19
01
00
0%
0$
1@
0<
#785000
1!
13
14
0'
1C
0.
0"
#790000
0!
03
04
1'
18
0>
06
12
1&
07
#795000
1!
13
14
0'
#800000
0!
03
04
1'
08
1>
16
02
0&
17
1A
0?
11
1%
0@
#805000
1!
13
14
0'
#810000
0!
03
04
1'
18
0>
06
12
1&
07
#815000
1!
13
14
0'
#820000
0!
03
04
1'
08
1>
16
02
0&
17
0A
1?
01
0%
1@
1:
09
10
1$
#825000
1!
13
14
0'
#830000
0!
03
04
1'
18
0>
06
12
1&
07
#835000
1!
13
14
0'
#840000
0!
03
04
1'
08
1>
16
02
0&
17
1A
1B
0?
1;
11
1%
0@
1<
0C
1.
1"
0A
0:
0B
1?
0;
19
01
00
0%
0$
1@
0<
#845000
1!
13
14
0'
1C
0.
0"
#850000
0!
03
04
1'
18
0>
06
12
1&
07
#855000
1!
13
14
0'
#860000
0!
03
04
1'
08
1>
16
02
0&
17
1A
0?
11
1%
0@
#865000
1!
13
14
0'
#870000
0!
03
04
1'
18
0>
06
12
1&
07
#875000
1!
13
14
0'
#880000
0!
03
04
1'
08
1>
16
02
0&
17
0A
1?
01
0%
1@
1:
09
10
1$
#885000
1!
13
14
0'
#890000
0!
03
04
1'
18
0>
06
12
1&
07
#895000
1!
13
14
0'
#900000
0!
03
04
1'
08
1>
16
02
0&
17
1A
1B
0?
1;
11
1%
0@
1<
0C
1.
1"
0A
0:
0B
1?
0;
19
01
00
0%
0$
1@
0<
#905000
1!
13
14
0'
1C
0.
0"
#910000
0!
03
04
1'
18
0>
06
12
1&
07
#915000
1!
13
14
0'
#920000
0!
03
04
1'
08
1>
16
02
0&
17
1A
0?
11
1%
0@
#925000
1!
13
14
0'
#930000
0!
03
04
1'
18
0>
06
12
1&
07
#935000
1!
13
14
0'
#940000
0!
03
04
1'
08
1>
16
02
0&
17
0A
1?
01
0%
1@
1:
09
10
1$
#945000
1!
13
14
0'
#950000
0!
03
04
1'
18
0>
06
12
1&
07
#955000
1!
13
14
0'
#960000
0!
03
04
1'
08
1>
16
02
0&
17
1A
1B
0?
1;
11
1%
0@
1<
0C
1.
1"
0A
0:
0B
1?
0;
19
01
00
0%
0$
1@
0<
#965000
1!
13
14
0'
1C
0.
0"
#970000
0!
03
04
1'
18
0>
06
12
1&
07
#975000
1!
13
14
0'
#980000
0!
03
04
1'
08
1>
16
02
0&
17
1A
0?
11
1%
0@
#985000
1!
13
14
0'
#990000
0!
03
04
1'
18
0>
06
12
1&
07
#995000
1!
13
14
0'
