fre_div/simulation/qsim/fre_div.msim.vcd
$comment
	File created using the following command:
		vcd file fre_div.msim.vcd -direction
$end
$date
	Sun May 23 01:22:36 2021
$end
$version
	ModelSim Version 10.1d
$end
$timescale
	1ps
$end
$scope module fre_div_59_vlg_vec_tst $end
$var reg 1 ! CI $end
$var reg 1 " TI $end
$var wire 1 # CO1 $end
$var wire 1 $ CO2 $end
$var wire 1 % CO3 $end
$var wire 1 & sampler $end
$scope module i1 $end
$var wire 1 ' gnd $end
$var wire 1 ( vcc $end
$var wire 1 ) unknown $end
$var tri1 1 * devclrn $end
$var tri1 1 + devpor $end
$var tri1 1 , devoe $end
$var wire 1 - CI~input_o $end
$var wire 1 . CO1~output_o $end
$var wire 1 / CO2~output_o $end
$var wire 1 0 CO3~output_o $end
$var wire 1 1 TI~input_o $end
$var wire 1 2 inst2|20~combout $end
$var wire 1 3 inst2|6~0_combout $end
$var wire 1 4 inst2|6~feeder_combout $end
$var wire 1 5 inst2|6~q $end
$var wire 1 6 inst2|5~0_combout $end
$var wire 1 7 inst2|5~q $end
$var wire 1 8 inst2|3~0_combout $end
$var wire 1 9 inst2|3~feeder_combout $end
$var wire 1 : inst2|3~q $end
$var wire 1 ; inst2|7~0_combout $end
$var wire 1 < inst2|7~feeder_combout $end
$var wire 1 = inst2|7~q $end
$var wire 1 > inst2|29~combout $end
$var wire 1 ? inst2|33~0_combout $end
$var wire 1 @ inst2|33~q $end
$var wire 1 A inst2|32~0_combout $end
$var wire 1 B inst2|32~q $end
$var wire 1 C inst2|31~0_combout $end
$var wire 1 D inst2|31~feeder_combout $end
$var wire 1 E inst2|31~q $end
$var wire 1 F inst3|inst|20~combout $end
$var wire 1 G inst3|inst|6~0_combout $end
$var wire 1 H inst3|inst|6~q $end
$var wire 1 I inst3|inst|5~0_combout $end
$var wire 1 J inst3|inst|5~q $end
$var wire 1 K inst3|inst|3~0_combout $end
$var wire 1 L inst3|inst|3~feeder_combout $end
$var wire 1 M inst3|inst|3~q $end
$var wire 1 N inst3|inst|7~0_combout $end
$var wire 1 O inst3|inst|7~feeder_combout $end
$var wire 1 P inst3|inst|7~q $end
$var wire 1 Q inst3|inst|29~combout $end
$var wire 1 R inst3|inst|33~0_combout $end
$var wire 1 S inst3|inst|33~q $end
$var wire 1 T inst3|inst|32~0_combout $end
$var wire 1 U inst3|inst|32~q $end
$var wire 1 V inst3|inst|31~0_combout $end
$var wire 1 W inst3|inst|31~feeder_combout $end
$var wire 1 X inst3|inst|31~q $end
$var wire 1 Y inst3|inst|34~0_combout $end
$var wire 1 Z inst3|inst|34~q $end
$upscope $end
$upscope $end
$enddefinitions $end
#0
$dumpvars
x!
0"
0#
0$
0%
x&
0'
1(
x)
1*
1+
1,
x-
0.
0/
00
01
12
13
14
05
16
07
08
09
0:
1;
1<
0=
1>
1?
0@
1A
0B
0C
0D
0E
1F
1G
0H
1I
0J
0K
0L
0M
1N
1O
0P
1Q
1R
0S
1T
0U
0V
0W
0X
1Y
0Z
$end
#5000
1"
11
0&
02
#10000
0"
01
1&
12
15
03
04
#15000
1"
11
0&
02
#20000
0"
01
1&
12
05
13
14
17
06
#25000
1"
11
0&
02
#30000
0"
01
1&
12
15
18
03
19
04
#35000
1"
11
0&
02
#40000
0"
01
1&
12
05
1:
08
13
1.
1#
09
14
07
16
#45000
1"
11
0&
#50000
0"
01
1&
0:
0.
0#
1=
0>
0;
1/
1$
0<
#55000
1"
11
0&
02
#60000
0"
01
1&
12
15
03
04
#65000
1"
11
0&
02
#70000
0"
01
1&
12
05
13
14
17
06
#75000
1"
11
0&
02
#80000
0"
01
1&
12
15
18
03
19
04
#85000
1"
11
0&
02
#90000
0"
01
1&
12
05
1:
08
13
1.
1#
09
14
07
16
#95000
1"
11
0&
#100000
0"
01
1&
0:
0.
0#
0=
1>
1;
0/
0$
1<
1@
0?
#105000
1"
11
0&
02
#110000
0"
01
1&
12
15
03
04
#115000
1"
11
0&
02
#120000
0"
01
1&
12
05
13
14
17
06
#125000
1"
11
0&
02
#130000
0"
01
1&
12
15
18
03
19
04
#135000
1"
11
0&
02
#140000
0"
01
1&
12
05
1:
08
13
1.
1#
09
14
07
16
#145000
1"
11
0&
#150000
0"
01
1&
0:
0.
0#
1=
0>
0;
1/
1$
0<
#155000
1"
11
0&
02
#160000
0"
01
1&
12
15
03
04
#165000
1"
11
0&
02
#170000
0"
01
1&
12
05
13
14
17
06
#175000
1"
11
0&
02
#180000
0"
01
1&
12
15
18
03
19
04
#185000
1"
11
0&
02
#190000
0"
01
1&
12
05
1:
08
13
1.
1#
09
14
07
16
#195000
1"
11
0&
#200000
0"
01
1&
0:
0.
0#
0=
1>
1;
0/
0$
1<
0@
1?
1B
0A
#205000
1"
11
0&
02
#210000
0"
01
1&
12
15
03
04
#215000
1"
11
0&
02
#220000
0"
01
1&
12
05
13
14
17
06
#225000
1"
11
0&
02
#230000
0"
01
1&
12
15
18
03
19
04
#235000
1"
11
0&
02
#240000
0"
01
1&
12
05
1:
08
13
1.
1#
09
14
07
16
#245000
1"
11
0&
#250000
0"
01
1&
0:
0.
0#
1=
0>
0;
1/
1$
0<
#255000
1"
11
0&
02
#260000
0"
01
1&
12
15
03
04
#265000
1"
11
0&
02
#270000
0"
01
1&
12
05
13
14
17
06
#275000
1"
11
0&
02
#280000
0"
01
1&
12
15
18
03
19
04
#285000
1"
11
0&
02
#290000
0"
01
1&
12
05
1:
08
13
1.
1#
09
14
07
16
#295000
1"
11
0&
#300000
0"
01
1&
0:
0.
0#
0=
1>
1;
0/
0$
1<
1@
1C
0?
1D
#305000
1"
11
0&
02
#310000
0"
01
1&
12
15
03
04
#315000
1"
11
0&
02
#320000
0"
01
1&
12
05
13
14
17
06
#325000
1"
11
0&
02
#330000
0"
01
1&
12
15
18
03
19
04
#335000
1"
11
0&
02
#340000
0"
01
1&
12
05
1:
08
13
1.
1#
09
14
07
16
#345000
1"
11
0&
#350000
0"
01
1&
0:
0.
0#
1=
0>
0;
1/
1$
0<
#355000
1"
11
0&
02
#360000
0"
01
1&
12
15
03
04
#365000
1"
11
0&
02
#370000
0"
01
1&
12
05
13
14
17
06
#375000
1"
11
0&
02
#380000
0"
01
1&
12
15
18
03
19
04
#385000
1"
11
0&
02
#390000
0"
01
1&
12
05
1:
08
13
1.
1#
09
14
07
16
#395000
1"
11
0&
#400000
0"
01
1&
0:
0.
0#
0=
1>
1;
0/
0$
1<
0@
1E
0C
1?
0F
0D
0B
1A
#405000
1"
11
0&
02
#410000
0"
01
1&
12
15
03
04
#415000
1"
11
0&
02
#420000
0"
01
1&
12
05
13
14
17
06
#425000
1"
11
0&
02
#430000
0"
01
1&
12
15
18
03
19
04
#435000
1"
11
0&
02
#440000
0"
01
1&
12
05
1:
08
13
1.
1#
09
14
07
16
#445000
1"
11
0&
#450000
0"
01
1&
0:
0.
0#
1=
0;
1/
1$
0<
#455000
1"
11
0&
02
#460000
0"
01
1&
12
15
03
04
#465000
1"
11
0&
02
#470000
0"
01
1&
12
05
13
14
17
06
#475000
1"
11
0&
02
#480000
0"
01
1&
12
15
18
03
19
04
#485000
1"
11
0&
02
#490000
0"
01
1&
12
05
1:
08
13
1.
1#
09
14
07
16
#495000
1"
11
0&
#500000
0"
01
1&
0:
0.
0#
0=
1;
0/
0$
1<
0E
1F
1H
0G
#505000
1"
11
0&
02
#510000
0"
01
1&
12
15
03
04
#515000
1"
11
0&
02
#520000
0"
01
1&
12
05
13
14
17
06
#525000
1"
11
0&
02
#530000
0"
01
1&
12
15
18
03
19
04
#535000
1"
11
0&
02
#540000
0"
01
1&
12
05
1:
08
13
1.
1#
09
14
07
16
#545000
1"
11
0&
#550000
0"
01
1&
0:
0.
0#
1=
0>
0;
1/
1$
0<
#555000
1"
11
0&
02
#560000
0"
01
1&
12
15
03
04
#565000
1"
11
0&
02
#570000
0"
01
1&
12
05
13
14
17
06
#575000
1"
11
0&
02
#580000
0"
01
1&
12
15
18
03
19
04
#585000
1"
11
0&
02
#590000
0"
01
1&
12
05
1:
08
13
1.
1#
09
14
07
16
#595000
1"
11
0&
#600000
0"
01
1&
0:
0.
0#
0=
1>
1;
0/
0$
1<
1@
0?
#605000
1"
11
0&
02
#610000
0"
01
1&
12
15
03
04
#615000
1"
11
0&
02
#620000
0"
01
1&
12
05
13
14
17
06
#625000
1"
11
0&
02
#630000
0"
01
1&
12
15
18
03
19
04
#635000
1"
11
0&
02
#640000
0"
01
1&
12
05
1:
08
13
1.
1#
09
14
07
16
#645000
1"
11
0&
#650000
0"
01
1&
0:
0.
0#
1=
0>
0;
1/
1$
0<
#655000
1"
11
0&
02
#660000
0"
01
1&
12
15
03
04
#665000
1"
11
0&
02
#670000
0"
01
1&
12
05
13
14
17
06
#675000
1"
11
0&
02
#680000
0"
01
1&
12
15
18
03
19
04
#685000
1"
11
0&
02
#690000
0"
01
1&
12
05
1:
08
13
1.
1#
09
14
07
16
#695000
1"
11
0&
#700000
0"
01
1&
0:
0.
0#
0=
1>
1;
0/
0$
1<
0@
1?
1B
0A
#705000
1"
11
0&
02
#710000
0"
01
1&
12
15
03
04
#715000
1"
11
0&
02
#720000
0"
01
1&
12
05
13
14
17
06
#725000
1"
11
0&
02
#730000
0"
01
1&
12
15
18
03
19
04
#735000
1"
11
0&
02
#740000
0"
01
1&
12
05
1:
08
13
1.
1#
09
14
07
16
#745000
1"
11
0&
#750000
0"
01
1&
0:
0.
0#
1=
0>
0;
1/
1$
0<
#755000
1"
11
0&
02
#760000
0"
01
1&
12
15
03
04
#765000
1"
11
0&
02
#770000
0"
01
1&
12
05
13
14
17
06
#775000
1"
11
0&
02
#780000
0"
01
1&
12
15
18
03
19
04
#785000
1"
11
0&
02
#790000
0"
01
1&
12
05
1:
08
13
1.
1#
09
14
07
16
#795000
1"
11
0&
#800000
0"
01
1&
0:
0.
0#
0=
1>
1;
0/
0$
1<
1@
1C
0?
1D
#805000
1"
11
0&
02
#810000
0"
01
1&
12
15
03
04
#815000
1"
11
0&
02
#820000
0"
01
1&
12
05
13
14
17
06
#825000
1"
11
0&
02
#830000
0"
01
1&
12
15
18
03
19
04
#835000
1"
11
0&
02
#840000
0"
01
1&
12
05
1:
08
13
1.
1#
09
14
07
16
#845000
1"
11
0&
#850000
0"
01
1&
0:
0.
0#
1=
0>
0;
1/
1$
0<
#855000
1"
11
0&
02
#860000
0"
01
1&
12
15
03
04
#865000
1"
11
0&
02
#870000
0"
01
1&
12
05
13
14
17
06
#875000
1"
11
0&
02
#880000
0"
01
1&
12
15
18
03
19
04
#885000
1"
11
0&
02
#890000
0"
01
1&
12
05
1:
08
13
1.
1#
09
14
07
16
#895000
1"
11
0&
#900000
0"
01
1&
0:
0.
0#
0=
1>
1;
0/
0$
1<
0@
1E
0C
1?
0F
0D
0B
1A
#905000
1"
11
0&
02
#910000
0"
01
1&
12
15
03
04
#915000
1"
11
0&
02
#920000
0"
01
1&
12
05
13
14
17
06
#925000
1"
11
0&
02
#930000
0"
01
1&
12
15
18
03
19
04
#935000
1"
11
0&
02
#940000
0"
01
1&
12
05
1:
08
13
1.
1#
09
14
07
16
#945000
1"
11
0&
#950000
0"
01
1&
0:
0.
0#
1=
0;
1/
1$
0<
#955000
1"
11
0&
02
#960000
0"
01
1&
12
15
03
04
#965000
1"
11
0&
02
#970000
0"
01
1&
12
05
13
14
17
06
#975000
1"
11
0&
02
#980000
0"
01
1&
12
15
18
03
19
04
#985000
1"
11
0&
02
#990000
0"
01
1&
12
05
1:
08
13
1.
1#
09
14
07
16
#995000
1"
11
0&
