clock_59/simulation/qsim/clock_59.msim.vcd
$comment
	File created using the following command:
		vcd file clock_59.msim.vcd -direction
$end
$date
	Mon Jun 14 20:55:44 2021
$end
$version
	ModelSim Version 10.1d
$end
$timescale
	1ps
$end
$scope module stb2_59_vlg_vec_tst $end
$var reg 1 ! CLK_59 $end
$var reg 1 " R_59 $end
$var wire 1 # P_59 $end
$var wire 1 $ sampler $end
$scope module i1 $end
$var wire 1 % gnd $end
$var wire 1 & vcc $end
$var wire 1 ' unknown $end
$var tri1 1 ( devclrn $end
$var tri1 1 ) devpor $end
$var tri1 1 * devoe $end
$var wire 1 + P_59~output_o $end
$var wire 1 , CLK_59~input_o $end
$var wire 1 - CLK_59~inputclkctrl_outclk $end
$var wire 1 . inst2~feeder_combout $end
$var wire 1 / inst~feeder_combout $end
$var wire 1 0 R_59~input_o $end
$var wire 1 1 inst~q $end
$var wire 1 2 inst2~q $end
$upscope $end
$upscope $end
$enddefinitions $end
#0
$dumpvars
1!
0"
1#
x$
0%
1&
x'
1(
1)
1*
1+
1,
1-
1.
1/
00
01
02
$end
#5000
0!
0,
0-
0$
#10000
1!
1,
1-
1$
11
#15000
0!
0,
0-
0$
#20000
1!
1,
1-
1$
12
0+
0#
#25000
0!
0,
0-
0$
#30000
1!
1,
1-
1$
#32500
1"
10
0$
01
02
1+
1#
#35000
0!
0"
0,
00
0-
1$
#40000
1!
1,
1-
0$
11
#45000
0!
0,
0-
1$
#50000
1!
1,
1-
0$
12
0+
0#
#55000
0!
0,
0-
1$
#60000
1!
1,
1-
0$
#65000
0!
0,
0-
1$
#70000
1!
1,
1-
0$
#75000
0!
0,
0-
1$
#80000
1!
1,
1-
0$
#85000
0!
0,
0-
1$
#90000
1!
1,
1-
0$
#95000
0!
0,
0-
1$
#100000
1!
1,
1-
0$
#105000
0!
0,
0-
1$
#110000
1!
1,
1-
0$
#115000
0!
0,
0-
1$
#120000
1!
1,
1-
0$
#125000
0!
0,
0-
1$
#130000
1!
1,
1-
0$
#135000
0!
0,
0-
1$
#140000
1!
1,
1-
0$
#145000
0!
0,
0-
1$
#150000
1!
1,
1-
0$
#155000
0!
0,
0-
1$
#160000
1!
1,
1-
0$
#165000
0!
0,
0-
1$
#170000
1!
1,
1-
0$
#175000
0!
0,
0-
1$
#180000
1!
1,
1-
0$
#185000
0!
0,
0-
1$
#190000
1!
1,
1-
0$
#195000
0!
0,
0-
1$
#200000
1!
1,
1-
0$
#205000
0!
0,
0-
1$
#210000
1!
1,
1-
0$
#215000
0!
0,
0-
1$
#220000
1!
1,
1-
0$
#225000
0!
0,
0-
1$
#230000
1!
1,
1-
0$
#235000
0!
0,
0-
1$
#240000
1!
1,
1-
0$
#245000
0!
0,
0-
1$
#250000
1!
1,
1-
0$
#255000
0!
0,
0-
1$
#260000
1!
1,
1-
0$
#265000
0!
0,
0-
1$
#270000
1!
1,
1-
0$
#275000
0!
0,
0-
1$
#280000
1!
1,
1-
0$
#285000
0!
0,
0-
1$
#290000
1!
1,
1-
0$
#295000
0!
0,
0-
1$
#300000
1!
1,
1-
0$
#305000
0!
0,
0-
1$
#310000
1!
1,
1-
0$
#315000
0!
0,
0-
1$
#320000
1!
1,
1-
0$
#325000
0!
0,
0-
1$
#330000
1!
1,
1-
0$
#335000
0!
0,
0-
1$
#340000
1!
1,
1-
0$
#345000
0!
0,
0-
1$
#350000
1!
1,
1-
0$
#355000
0!
0,
0-
1$
#360000
1!
1,
1-
0$
#365000
0!
0,
0-
1$
#370000
1!
1,
1-
0$
#375000
0!
0,
0-
1$
#380000
1!
1,
1-
0$
#385000
0!
0,
0-
1$
#390000
1!
1,
1-
0$
#395000
0!
0,
0-
1$
#400000
1!
1,
1-
0$
#405000
0!
0,
0-
1$
#410000
1!
1,
1-
0$
#415000
0!
0,
0-
1$
#420000
1!
1,
1-
0$
#425000
0!
0,
0-
1$
#430000
1!
1,
1-
0$
#435000
0!
0,
0-
1$
#440000
1!
1,
1-
0$
#445000
0!
0,
0-
1$
#450000
1!
1,
1-
0$
#455000
0!
0,
0-
1$
#460000
1!
1,
1-
0$
#465000
0!
0,
0-
1$
#470000
1!
1,
1-
0$
#475000
0!
0,
0-
1$
#480000
1!
1,
1-
0$
#485000
0!
0,
0-
1$
#490000
1!
1,
1-
0$
#495000
0!
0,
0-
1$
#500000
1!
1,
1-
0$
#505000
0!
0,
0-
1$
#510000
1!
1,
1-
0$
#515000
0!
0,
0-
1$
#520000
1!
1,
1-
0$
#525000
0!
0,
0-
1$
#530000
1!
1,
1-
0$
#535000
0!
0,
0-
1$
#540000
1!
1,
1-
0$
#545000
0!
0,
0-
1$
#550000
1!
1,
1-
0$
#555000
0!
0,
0-
1$
#560000
1!
1,
1-
0$
#565000
0!
0,
0-
1$
#570000
1!
1,
1-
0$
#575000
0!
0,
0-
1$
#580000
1!
1,
1-
0$
#585000
0!
0,
0-
1$
#590000
1!
1,
1-
0$
#595000
0!
0,
0-
1$
#600000
1!
1,
1-
0$
#605000
0!
0,
0-
1$
#610000
1!
1,
1-
0$
#615000
0!
0,
0-
1$
#620000
1!
1,
1-
0$
#625000
0!
0,
0-
1$
#630000
1!
1,
1-
0$
#635000
0!
0,
0-
1$
#640000
1!
1,
1-
0$
#645000
0!
0,
0-
1$
#650000
1!
1,
1-
0$
#655000
0!
0,
0-
1$
#660000
1!
1,
1-
0$
#665000
0!
0,
0-
1$
#670000
1!
1,
1-
0$
#675000
0!
0,
0-
1$
#680000
1!
1,
1-
0$
#685000
0!
0,
0-
1$
#690000
1!
1,
1-
0$
#695000
0!
0,
0-
1$
#700000
1!
1,
1-
0$
#705000
0!
0,
0-
1$
#710000
1!
1,
1-
0$
#715000
0!
0,
0-
1$
#720000
1!
1,
1-
0$
#725000
0!
0,
0-
1$
#730000
1!
1,
1-
0$
#735000
0!
0,
0-
1$
#740000
1!
1,
1-
0$
#745000
0!
0,
0-
1$
#750000
1!
1,
1-
0$
#755000
0!
0,
0-
1$
#760000
1!
1,
1-
0$
#765000
0!
0,
0-
1$
#770000
1!
1,
1-
0$
#775000
0!
0,
0-
1$
#780000
1!
1,
1-
0$
#785000
0!
0,
0-
1$
#790000
1!
1,
1-
0$
#795000
0!
0,
0-
1$
#800000
1!
1,
1-
0$
#805000
0!
0,
0-
1$
#810000
1!
1,
1-
0$
#815000
0!
0,
0-
1$
#820000
1!
1,
1-
0$
#825000
0!
0,
0-
1$
#830000
1!
1,
1-
0$
#835000
0!
0,
0-
1$
#840000
1!
1,
1-
0$
#845000
0!
0,
0-
1$
#850000
1!
1,
1-
0$
#855000
0!
0,
0-
1$
#860000
1!
1,
1-
0$
#865000
0!
0,
0-
1$
#870000
1!
1,
1-
0$
#875000
0!
0,
0-
1$
#880000
1!
1,
1-
0$
#885000
0!
0,
0-
1$
#890000
1!
1,
1-
0$
#895000
0!
0,
0-
1$
#900000
1!
1,
1-
0$
#905000
0!
0,
0-
1$
#910000
1!
1,
1-
0$
#915000
0!
0,
0-
1$
#920000
1!
1,
1-
0$
#925000
0!
0,
0-
1$
#930000
1!
1,
1-
0$
#935000
0!
0,
0-
1$
#940000
1!
1,
1-
0$
#945000
0!
0,
0-
1$
#950000
1!
1,
1-
0$
#955000
0!
0,
0-
1$
#960000
1!
1,
1-
0$
#965000
0!
0,
0-
1$
#970000
1!
1,
1-
0$
#975000
0!
0,
0-
1$
#980000
1!
1,
1-
0$
#985000
0!
0,
0-
1$
#990000
1!
1,
1-
0$
#995000
0!
0,
0-
1$
