static_display/simulation/qsim/static_display.msim.vcd
$comment
	File created using the following command:
		vcd file static_display.msim.vcd -direction
$end
$date
	Mon May 24 21:24:26 2021
$end
$version
	ModelSim Version 10.1d
$end
$timescale
	1ps
$end
$scope module cnt_m10_vlg_vec_tst $end
$var reg 1 ! CLK_59 $end
$var wire 1 " D_59 [3] $end
$var wire 1 # D_59 [2] $end
$var wire 1 $ D_59 [1] $end
$var wire 1 % D_59 [0] $end
$var wire 1 & sampler $end
$scope module i1 $end
$var wire 1 ' gnd $end
$var wire 1 ( vcc $end
$var wire 1 ) unknown $end
$var tri1 1 * devclrn $end
$var tri1 1 + devpor $end
$var tri1 1 , devoe $end
$var wire 1 - D_59[3]~output_o $end
$var wire 1 . D_59[2]~output_o $end
$var wire 1 / D_59[1]~output_o $end
$var wire 1 0 D_59[0]~output_o $end
$var wire 1 1 CLK_59~input_o $end
$var wire 1 2 inst|7~0_combout $end
$var wire 1 3 inst|7~feeder_combout $end
$var wire 1 4 inst|7~q $end
$var wire 1 5 inst|20~combout $end
$var wire 1 6 inst|6~0_combout $end
$var wire 1 7 inst|6~q $end
$var wire 1 8 inst|5~0_combout $end
$var wire 1 9 inst|5~q $end
$var wire 1 : inst|3~0_combout $end
$var wire 1 ; inst|3~q $end
$upscope $end
$upscope $end
$enddefinitions $end
#0
$dumpvars
0!
x%
x$
x#
x"
x&
0'
1(
x)
1*
1+
1,
x-
x.
x/
x0
01
x2
x3
04
x5
x6
07
18
09
x:
0;
$end
#548
0:
#727
16
#932
15
#1540
12
#3120
13
#3126
0.
0#
#3141
0-
0"
#3150
0/
0$
#3185
00
0%
#5000000
1!
0&
#5000969
11
#10000000
0!
1&
#10001014
01
#10002893
14
#10003749
05
#10004501
02
#10005937
03
#10006187
10
1%
#15000000
1!
0&
#15000969
11
#20000000
0!
1&
#20001014
01
#20002893
04
#20003825
15
#20004433
12
#20005039
17
#20005720
06
#20006013
13
#20006078
00
0%
#20008310
1/
1$
#25000000
1!
0&
#25000969
11
#30000000
0!
1&
#30001014
01
#30002893
14
#30003749
05
#30004501
02
#30005937
03
#30006187
10
1%
#35000000
1!
0&
#35000969
11
#40000000
0!
1&
#40001014
01
#40002893
04
#40003825
15
#40004433
12
#40005039
07
#40005766
16
#40006013
13
#40006078
00
0%
#40006559
19
#40007041
08
#40008189
0/
0$
#40009812
1.
1#
#45000000
1!
0&
#45000969
11
#50000000
0!
1&
#50001014
01
#50002893
14
#50003749
05
#50004501
02
#50005937
03
#50006187
10
1%
#55000000
1!
0&
#55000969
11
#60000000
0!
1&
#60001014
01
#60002893
04
#60003825
15
#60004433
12
#60005039
17
#60005720
06
#60006013
13
#60006078
00
0%
#60006559
1:
#60008310
1/
1$
#65000000
1!
0&
#65000969
11
#70000000
0!
1&
#70001014
01
#70002893
14
#70003749
05
#70004501
02
#70005937
03
#70006187
10
1%
#75000000
1!
0&
#75000969
11
#80000000
0!
1&
#80001014
01
#80002893
04
#80003825
15
#80004433
12
#80004437
1;
#80004919
0:
#80005039
07
#80005766
16
#80006013
13
#80006078
00
0%
#80006559
09
#80007021
18
#80007690
1-
1"
#80008189
0/
0$
#80009685
0.
0#
#85000000
1!
0&
#85000969
11
#90000000
0!
1&
#90001014
01
#90002893
14
#90004501
02
#90005937
03
#90006187
10
1%
#95000000
1!
0&
